<?xml version="1.0" encoding="UTF-8" standalone="no"?>
<!-- Created with Inkscape (http://www.inkscape.org/) -->

<svg
   xmlns:dc="http://purl.org/dc/elements/1.1/"
   xmlns:cc="http://creativecommons.org/ns#"
   xmlns:rdf="http://www.w3.org/1999/02/22-rdf-syntax-ns#"
   xmlns:svg="http://www.w3.org/2000/svg"
   xmlns="http://www.w3.org/2000/svg"
   xmlns:xlink="http://www.w3.org/1999/xlink"
   xmlns:sodipodi="http://sodipodi.sourceforge.net/DTD/sodipodi-0.dtd"
   xmlns:inkscape="http://www.inkscape.org/namespaces/inkscape"
   width="210mm"
   height="297mm"
   viewBox="0 0 744.09448819 1052.3622047"
   id="svg2"
   version="1.1"
   inkscape:version="0.92.2 5c3e80d, 2017-08-06"
   sodipodi:docname="LS_Deps.svg">
  <defs
     id="defs4">
    <marker
       inkscape:stockid="Arrow2Mend"
       orient="auto"
       refY="0.0"
       refX="0.0"
       id="marker2487"
       style="overflow:visible;"
       inkscape:isstock="true">
      <path
         id="path2485"
         style="fill-rule:evenodd;stroke-width:0.625;stroke-linejoin:round;stroke:#ae00ff;stroke-opacity:1;fill:#ae00ff;fill-opacity:1"
         d="M 8.7185878,4.0337352 L -2.2072895,0.016013256 L 8.7185884,-4.0017078 C 6.9730900,-1.6296469 6.9831476,1.6157441 8.7185878,4.0337352 z "
         transform="scale(0.6) rotate(180) translate(0,0)" />
    </marker>
    <marker
       inkscape:stockid="Arrow2Mend"
       orient="auto"
       refY="0.0"
       refX="0.0"
       id="marker2075"
       style="overflow:visible;"
       inkscape:isstock="true">
      <path
         id="path2073"
         style="fill-rule:evenodd;stroke-width:0.625;stroke-linejoin:round;stroke:#ae00ff;stroke-opacity:1;fill:#ae00ff;fill-opacity:1"
         d="M 8.7185878,4.0337352 L -2.2072895,0.016013256 L 8.7185884,-4.0017078 C 6.9730900,-1.6296469 6.9831476,1.6157441 8.7185878,4.0337352 z "
         transform="scale(0.6) rotate(180) translate(0,0)" />
    </marker>
    <marker
       inkscape:isstock="true"
       style="overflow:visible;"
       id="marker1452"
       refX="0.0"
       refY="0.0"
       orient="auto"
       inkscape:stockid="Arrow2Mend">
      <path
         transform="scale(0.6) rotate(180) translate(0,0)"
         d="M 8.7185878,4.0337352 L -2.2072895,0.016013256 L 8.7185884,-4.0017078 C 6.9730900,-1.6296469 6.9831476,1.6157441 8.7185878,4.0337352 z "
         style="fill-rule:evenodd;stroke-width:0.625;stroke-linejoin:round;stroke:#0000ff;stroke-opacity:1;fill:#0000ff;fill-opacity:1"
         id="path1450" />
    </marker>
    <marker
       inkscape:isstock="true"
       style="overflow:visible;"
       id="marker1358"
       refX="0.0"
       refY="0.0"
       orient="auto"
       inkscape:stockid="Arrow2Mend">
      <path
         transform="scale(0.6) rotate(180) translate(0,0)"
         d="M 8.7185878,4.0337352 L -2.2072895,0.016013256 L 8.7185884,-4.0017078 C 6.9730900,-1.6296469 6.9831476,1.6157441 8.7185878,4.0337352 z "
         style="fill-rule:evenodd;stroke-width:0.625;stroke-linejoin:round;stroke:#0004ff;stroke-opacity:1;fill:#0004ff;fill-opacity:1"
         id="path1356" />
    </marker>
    <marker
       inkscape:stockid="DotM"
       orient="auto"
       refY="0.0"
       refX="0.0"
       id="DotM"
       style="overflow:visible"
       inkscape:isstock="true">
      <path
         id="path4349"
         d="M -2.5,-1.0 C -2.5,1.7600000 -4.7400000,4.0 -7.5,4.0 C -10.260000,4.0 -12.5,1.7600000 -12.5,-1.0 C -12.5,-3.7600000 -10.260000,-6.0 -7.5,-6.0 C -4.7400000,-6.0 -2.5,-3.7600000 -2.5,-1.0 z "
         style="fill-rule:evenodd;stroke:#000000;stroke-width:1pt;stroke-opacity:1;fill:#000000;fill-opacity:1"
         transform="scale(0.4) translate(7.4, 1)" />
    </marker>
    <marker
       inkscape:isstock="true"
       style="overflow:visible;"
       id="marker6810"
       refX="0.0"
       refY="0.0"
       orient="auto"
       inkscape:stockid="Arrow2Mend"
       inkscape:collect="always">
      <path
         transform="scale(0.6) rotate(180) translate(0,0)"
         d="M 8.7185878,4.0337352 L -2.2072895,0.016013256 L 8.7185884,-4.0017078 C 6.9730900,-1.6296469 6.9831476,1.6157441 8.7185878,4.0337352 z "
         style="fill-rule:evenodd;stroke-width:0.625;stroke-linejoin:round;stroke:#ff0000;stroke-opacity:1;fill:#ff0000;fill-opacity:1"
         id="path6812" />
    </marker>
    <marker
       inkscape:stockid="Arrow2Mend"
       orient="auto"
       refY="0.0"
       refX="0.0"
       id="marker6720"
       style="overflow:visible;"
       inkscape:isstock="true"
       inkscape:collect="always">
      <path
         id="path6722"
         style="fill-rule:evenodd;stroke-width:0.625;stroke-linejoin:round;stroke:#008000;stroke-opacity:1;fill:#008000;fill-opacity:1"
         d="M 8.7185878,4.0337352 L -2.2072895,0.016013256 L 8.7185884,-4.0017078 C 6.9730900,-1.6296469 6.9831476,1.6157441 8.7185878,4.0337352 z "
         transform="scale(0.6) rotate(180) translate(0,0)" />
    </marker>
    <marker
       inkscape:isstock="true"
       style="overflow:visible;"
       id="marker5328"
       refX="0.0"
       refY="0.0"
       orient="auto"
       inkscape:stockid="Arrow2Mend"
       inkscape:collect="always">
      <path
         transform="scale(0.6) rotate(180) translate(0,0)"
         d="M 8.7185878,4.0337352 L -2.2072895,0.016013256 L 8.7185884,-4.0017078 C 6.9730900,-1.6296469 6.9831476,1.6157441 8.7185878,4.0337352 z "
         style="fill-rule:evenodd;stroke-width:0.625;stroke-linejoin:round;stroke:#ff0000;stroke-opacity:1;fill:#ff0000;fill-opacity:1"
         id="path5330" />
    </marker>
    <marker
       inkscape:stockid="StopL"
       orient="auto"
       refY="0.0"
       refX="0.0"
       id="StopL"
       style="overflow:visible"
       inkscape:isstock="true">
      <path
         id="path4612"
         d="M 0.0,5.65 L 0.0,-5.65"
         style="fill:none;fill-opacity:0.75;fill-rule:evenodd;stroke:#000000;stroke-width:1pt;stroke-opacity:1"
         transform="scale(0.8)" />
    </marker>
    <marker
       inkscape:stockid="Arrow1Lend"
       orient="auto"
       refY="0.0"
       refX="0.0"
       id="marker4255"
       style="overflow:visible;"
       inkscape:isstock="true">
      <path
         id="path4257"
         d="M 0.0,0.0 L 5.0,-5.0 L -12.5,0.0 L 5.0,5.0 L 0.0,0.0 z "
         style="fill-rule:evenodd;stroke:#000000;stroke-width:1pt;stroke-opacity:1;fill:#000000;fill-opacity:1"
         transform="scale(0.8) rotate(180) translate(12.5,0)" />
    </marker>
    <marker
       inkscape:isstock="true"
       style="overflow:visible;"
       id="marker14156"
       refX="0.0"
       refY="0.0"
       orient="auto"
       inkscape:stockid="Arrow2Mend">
      <path
         transform="scale(0.6) rotate(180) translate(0,0)"
         d="M 8.7185878,4.0337352 L -2.2072895,0.016013256 L 8.7185884,-4.0017078 C 6.9730900,-1.6296469 6.9831476,1.6157441 8.7185878,4.0337352 z "
         style="fill-rule:evenodd;stroke-width:0.625;stroke-linejoin:round;stroke:#008000;stroke-opacity:1;fill:#008000;fill-opacity:1"
         id="path14158" />
    </marker>
    <marker
       inkscape:isstock="true"
       style="overflow:visible;"
       id="marker14092"
       refX="0.0"
       refY="0.0"
       orient="auto"
       inkscape:stockid="Arrow2Mend">
      <path
         transform="scale(0.6) rotate(180) translate(0,0)"
         d="M 8.7185878,4.0337352 L -2.2072895,0.016013256 L 8.7185884,-4.0017078 C 6.9730900,-1.6296469 6.9831476,1.6157441 8.7185878,4.0337352 z "
         style="fill-rule:evenodd;stroke-width:0.625;stroke-linejoin:round;stroke:#ff0000;stroke-opacity:1;fill:#ff0000;fill-opacity:1"
         id="path14094" />
    </marker>
    <marker
       inkscape:stockid="Arrow2Mend"
       orient="auto"
       refY="0.0"
       refX="0.0"
       id="marker13828"
       style="overflow:visible;"
       inkscape:isstock="true"
       inkscape:collect="always">
      <path
         id="path13830"
         style="fill-rule:evenodd;stroke-width:0.625;stroke-linejoin:round;stroke:#008000;stroke-opacity:1;fill:#008000;fill-opacity:1"
         d="M 8.7185878,4.0337352 L -2.2072895,0.016013256 L 8.7185884,-4.0017078 C 6.9730900,-1.6296469 6.9831476,1.6157441 8.7185878,4.0337352 z "
         transform="scale(0.6) rotate(180) translate(0,0)" />
    </marker>
    <marker
       inkscape:stockid="Arrow2Lend"
       orient="auto"
       refY="0.0"
       refX="0.0"
       id="Arrow2Lend"
       style="overflow:visible;"
       inkscape:isstock="true">
      <path
         id="path4165"
         style="fill-rule:evenodd;stroke-width:0.625;stroke-linejoin:round;stroke:#ff0000;stroke-opacity:1;fill:#ff0000;fill-opacity:1"
         d="M 8.7185878,4.0337352 L -2.2072895,0.016013256 L 8.7185884,-4.0017078 C 6.9730900,-1.6296469 6.9831476,1.6157441 8.7185878,4.0337352 z "
         transform="scale(1.1) rotate(180) translate(1,0)" />
    </marker>
    <marker
       inkscape:stockid="Arrow1Lend"
       orient="auto"
       refY="0.0"
       refX="0.0"
       id="marker12508"
       style="overflow:visible;"
       inkscape:isstock="true">
      <path
         id="path12510"
         d="M 0.0,0.0 L 5.0,-5.0 L -12.5,0.0 L 5.0,5.0 L 0.0,0.0 z "
         style="fill-rule:evenodd;stroke:#ff0000;stroke-width:1pt;stroke-opacity:1;fill:#ff0000;fill-opacity:1"
         transform="scale(0.8) rotate(180) translate(12.5,0)" />
    </marker>
    <linearGradient
       inkscape:collect="always"
       id="linearGradient11678">
      <stop
         style="stop-color:#000000;stop-opacity:1"
         offset="0"
         id="stop11680" />
      <stop
         style="stop-color:#000000;stop-opacity:0"
         offset="1"
         id="stop11682" />
    </linearGradient>
    <marker
       inkscape:isstock="true"
       style="overflow:visible;"
       id="marker11640"
       refX="0.0"
       refY="0.0"
       orient="auto"
       inkscape:stockid="Arrow1Lend"
       inkscape:collect="always">
      <path
         transform="scale(0.8) rotate(180) translate(12.5,0)"
         style="fill-rule:evenodd;stroke:#000000;stroke-width:1pt;stroke-opacity:1;fill:#000000;fill-opacity:1"
         d="M 0.0,0.0 L 5.0,-5.0 L -12.5,0.0 L 5.0,5.0 L 0.0,0.0 z "
         id="path11642" />
    </marker>
    <linearGradient
       inkscape:collect="always"
       xlink:href="#linearGradient11678"
       id="linearGradient6328"
       gradientUnits="userSpaceOnUse"
       gradientTransform="translate(-1.36476,1.4499699)"
       x1="372.397"
       y1="545.4986"
       x2="520.12628"
       y2="399.52209" />
    <linearGradient
       inkscape:collect="always"
       xlink:href="#linearGradient11678"
       id="linearGradient6662"
       gradientUnits="userSpaceOnUse"
       gradientTransform="matrix(-1,0,0,-1,714.3989,1110.7569)"
       x1="372.397"
       y1="545.4986"
       x2="540.21771"
       y2="410.87811" />
    <linearGradient
       inkscape:collect="always"
       xlink:href="#linearGradient11678"
       id="linearGradient1351"
       gradientUnits="userSpaceOnUse"
       gradientTransform="matrix(-1,0,0,1,713.81989,0.4011)"
       x1="372.397"
       y1="545.4986"
       x2="540.21771"
       y2="410.87811" />
    <linearGradient
       inkscape:collect="always"
       xlink:href="#linearGradient11678"
       id="linearGradient2068"
       gradientUnits="userSpaceOnUse"
       gradientTransform="matrix(1,0,0,-1,-1.36476,1110.386)"
       x1="372.397"
       y1="545.4986"
       x2="520.12628"
       y2="399.52209" />
  </defs>
  <sodipodi:namedview
     id="base"
     pagecolor="#ffffff"
     bordercolor="#666666"
     borderopacity="1.0"
     inkscape:pageopacity="0.0"
     inkscape:pageshadow="2"
     inkscape:zoom="1.0986271"
     inkscape:cx="414.99155"
     inkscape:cy="540.55366"
     inkscape:document-units="px"
     inkscape:current-layer="layer1"
     showgrid="false"
     inkscape:window-width="1280"
     inkscape:window-height="778"
     inkscape:window-x="32"
     inkscape:window-y="0"
     inkscape:window-maximized="0" />
  <metadata
     id="metadata7">
    <rdf:RDF>
      <cc:Work
         rdf:about="">
        <dc:format>image/svg+xml</dc:format>
        <dc:type
           rdf:resource="http://purl.org/dc/dcmitype/StillImage" />
        <dc:title />
      </cc:Work>
    </rdf:RDF>
  </metadata>
  <g
     inkscape:label="Layer 1"
     inkscape:groupmode="layer"
     id="layer1">
    <path
       style="fill:url(#linearGradient2068);fill-opacity:1;fill-rule:evenodd;stroke:none;stroke-width:1px;stroke-linecap:butt;stroke-linejoin:miter;stroke-opacity:1"
       d="m 384.59848,555.64212 c 0,0 1.74459,5.95649 4.96654,5.95649 3.22195,0 3.8698,-5.85992 3.8698,-5.85992 l 42.61011,-0.0966 c 0,0 1.50891,5.59525 5.36131,5.63685 3.8524,0.0416 3.45624,-5.51614 3.45624,-5.51614 l 40.82823,0.54965 c 0,0 2.0253,4.63042 5.70209,4.41311 3.67679,-0.21731 3.73248,-4.34069 3.73248,-4.34069 l 42.52002,-0.76688 c 0,0 1.20342,5.1272 4.97625,5.05958 3.77283,-0.0676 4.1071,-4.98715 4.1071,-4.98715 l 29.43821,-0.0483 c 0,0 23.22048,54.6351 20.46088,87.35702 -2.7596,32.72193 -70.80854,32.17466 -87.37496,59.8291 -16.56641,27.65444 -28.0338,57.41625 -55.2579,67.98031 -30.68718,11.90788 -97.67078,-14.55769 -97.67078,-14.55769 l 0.0237,-200.34721 z"
       id="use2054"
       inkscape:connector-curvature="0"
       sodipodi:nodetypes="czcczcczcczccssaccc" />
    <path
       sodipodi:nodetypes="czcczcczcczccaaacccc"
       inkscape:connector-curvature="0"
       id="use1337"
       d="m 331.37299,555.14503 c 0,0 -1.43486,-4.54506 -4.65681,-4.54506 -3.22195,0 -4.25196,4.54506 -4.25196,4.54506 l -43.53679,-0.59537 c 0,0 -2.49428,-4.01233 -4.51598,-4.00035 -2.02171,0.012 -4.51599,4.09692 -4.51599,4.09692 l -42.11102,0.4988 c 0,0 -1.24334,-4.79045 -5.09574,-4.83205 -3.8524,-0.0416 -4.27709,4.75962 -4.27709,4.75962 l -42.70877,0.53111 c 0,0 -0.13809,-5.09631 -3.91092,-5.02869 -3.77283,0.0676 -4.931,4.42512 -4.931,4.42512 l -33.88226,0.14486 c 0,0 26.05654,-29.57149 29.23858,-48.04777 5.83031,-33.85337 -38.49819,-71.30298 -21.03617,-100.88543 24.07095,-40.77863 89.46987,-31.86619 135.76704,-41.81002 26.10104,-5.60605 79.47,-9.93729 79.47,-9.93729 l -0.64929,200.76116 c -7.28819,-0.25807 -24.39583,-0.0806 -24.39583,-0.0806 z"
       style="fill:url(#linearGradient1351);fill-opacity:1;fill-rule:evenodd;stroke:none;stroke-width:1px;stroke-linecap:butt;stroke-linejoin:miter;stroke-opacity:1" />
    <path
       style="fill:url(#linearGradient6662);fill-opacity:1;fill-rule:evenodd;stroke:none;stroke-width:1px;stroke-linecap:butt;stroke-linejoin:miter;stroke-opacity:1"
       d="m 331.952,556.01297 c 0,0 -1.43486,4.54506 -4.65681,4.54506 -3.22195,0 -4.25196,-4.54506 -4.25196,-4.54506 l -43.53679,0.59537 c 0,0 -2.49428,4.01233 -4.51598,4.00035 -2.02171,-0.012 -4.51599,-4.09692 -4.51599,-4.09692 l -42.11102,-0.4988 c 0,0 -1.24334,4.79045 -5.09574,4.83205 -3.8524,0.0416 -4.27709,-4.75962 -4.27709,-4.75962 l -42.70877,-0.53111 c 0,0 -0.13809,5.09631 -3.91092,5.02869 -3.77283,-0.0676 -4.931,-4.42512 -4.931,-4.42512 L 133.55767,556.013 c 0,0 26.05654,29.57149 29.23858,48.04777 5.83031,33.85337 -38.49819,71.30298 -21.03617,100.88543 24.07095,40.77863 89.46987,31.86619 135.76704,41.81002 26.10104,5.60605 79.47,9.93729 79.47,9.93729 l -0.64929,-200.76116 c -7.28819,0.25807 -24.39583,0.0806 -24.39583,0.0806 z"
       id="use6648"
       inkscape:connector-curvature="0"
       sodipodi:nodetypes="czcczcczcczccaaacccc" />
    <path
       sodipodi:nodetypes="czcczcczcczccssaccc"
       inkscape:connector-curvature="0"
       id="use11686"
       d="m 384.59848,556.19388 c 0,0 1.74459,-5.95649 4.96654,-5.95649 3.22195,0 3.8698,5.85992 3.8698,5.85992 l 42.61011,0.0966 c 0,0 1.50891,-5.59525 5.36131,-5.63685 3.8524,-0.0416 3.45624,5.51614 3.45624,5.51614 l 40.82823,-0.54965 c 0,0 2.0253,-4.63042 5.70209,-4.41311 3.67679,0.21731 3.73248,4.34069 3.73248,4.34069 l 42.52002,0.76688 c 0,0 1.20342,-5.1272 4.97625,-5.05958 3.77283,0.0676 4.1071,4.98715 4.1071,4.98715 l 29.43821,0.0483 c 0,0 23.22048,-54.6351 20.46088,-87.35702 -2.7596,-32.72193 -70.80854,-32.17466 -87.37496,-59.8291 -16.56641,-27.65444 -28.0338,-57.41625 -55.2579,-67.98031 -30.68718,-11.90788 -97.67078,14.55769 -97.67078,14.55769 l 0.0237,200.34721 z"
       style="fill:url(#linearGradient6328);fill-opacity:1;fill-rule:evenodd;stroke:none;stroke-width:1px;stroke-linecap:butt;stroke-linejoin:miter;stroke-opacity:1" />
    <path
       inkscape:connector-curvature="0"
       id="use3338"
       d="m 120.75936,555.8926 51.50946,0 51.50945,0 51.50946,0 51.50946,0 62.84959,0 h 50.66572 50.66571 50.66572 50.66571"
       style="fill:none;fill-rule:evenodd;stroke:#000000;stroke-width:1px;stroke-linecap:butt;stroke-linejoin:miter;stroke-opacity:1;marker-mid:url(#DotM);marker-end:url(#marker4255)"
       sodipodi:nodetypes="cccccscccc" />
    <path
       style="fill:none;fill-rule:evenodd;stroke:#000000;stroke-width:1px;stroke-linecap:butt;stroke-linejoin:miter;stroke-opacity:1;marker-end:url(#marker11640)"
       d="m 356.53801,793.48777 0,-471.55028"
       id="path3336"
       inkscape:connector-curvature="0" />
    <flowRoot
       xml:space="preserve"
       id="flowRoot11656"
       style="font-style:normal;font-variant:normal;font-weight:normal;font-stretch:normal;line-height:0.01%;font-family:sans-serif;-inkscape-font-specification:sans-serif;letter-spacing:0px;word-spacing:0px;fill:#000000;fill-opacity:1;stroke:none;stroke-width:1px;stroke-linecap:butt;stroke-linejoin:miter;stroke-opacity:1"
       transform="translate(-4.605042,19.002706)"><flowRegion
         id="flowRegion11658"><rect
           id="rect11660"
           width="274.11255"
           height="107.34478"
           x="605.73126"
           y="530.97327"
           style="font-style:normal;font-variant:normal;font-weight:normal;font-stretch:normal;font-family:sans-serif;-inkscape-font-specification:sans-serif" /></flowRegion><flowPara
         id="flowPara11662"
         style="font-size:7.5px;line-height:1.25">$\Re(\kappa)$</flowPara></flowRoot>    <flowRoot
       xml:space="preserve"
       id="flowRoot11664"
       style="font-style:normal;font-variant:normal;font-weight:normal;font-stretch:normal;line-height:0.01%;font-family:sans-serif;-inkscape-font-specification:sans-serif;letter-spacing:0px;word-spacing:0px;fill:#000000;fill-opacity:1;stroke:none;stroke-width:1px;stroke-linecap:butt;stroke-linejoin:miter;stroke-opacity:1"
       transform="translate(95.843552,72.8411)"><flowRegion
         id="flowRegion11666"><rect
           id="rect11668"
           width="421.71164"
           height="115.01226"
           x="251.11011"
           y="222.35704"
           style="font-style:normal;font-variant:normal;font-weight:normal;font-stretch:normal;font-family:sans-serif;-inkscape-font-specification:sans-serif" /></flowRegion><flowPara
         id="flowPara11670"
         style="font-size:20px;line-height:1.25">$\Im(\kappa)$</flowPara></flowRoot>    <flowRoot
       xml:space="preserve"
       id="flowRoot14351"
       style="font-style:normal;font-variant:normal;font-weight:normal;font-stretch:normal;line-height:0.01%;font-family:sans-serif;-inkscape-font-specification:sans-serif;letter-spacing:0px;word-spacing:0px;fill:#000000;fill-opacity:1;stroke:none;stroke-width:1px;stroke-linecap:butt;stroke-linejoin:miter;stroke-opacity:1"
       transform="translate(-55.733507,113.60246)"><flowRegion
         id="flowRegion14353"><rect
           id="rect14355"
           width="343.19275"
           height="45.94656"
           x="488.53391"
           y="329.40704"
           style="font-style:normal;font-variant:normal;font-weight:normal;font-stretch:normal;font-family:sans-serif;-inkscape-font-specification:sans-serif" /></flowRegion><flowPara
         id="flowPara14357"
         style="font-style:normal;font-variant:normal;font-weight:normal;font-stretch:normal;font-size:7.5px;line-height:1.25;font-family:sans-serif;-inkscape-font-specification:sans-serif">$\widetilde{D^+}$</flowPara></flowRoot>    <flowRoot
       xml:space="preserve"
       id="flowRoot14359"
       style="font-style:normal;font-variant:normal;font-weight:normal;font-stretch:normal;line-height:0.01%;font-family:sans-serif;-inkscape-font-specification:sans-serif;letter-spacing:0px;word-spacing:0px;fill:#000000;fill-opacity:1;stroke:none;stroke-width:1px;stroke-linecap:butt;stroke-linejoin:miter;stroke-opacity:1"
       transform="translate(-218.82129,4.2814807)"><flowRegion
         id="flowRegion14361"><rect
           id="rect14363"
           width="172.9294"
           height="58.329105"
           x="440.71198"
           y="636.03003"
           style="font-style:normal;font-variant:normal;font-weight:normal;font-stretch:normal;font-family:sans-serif;-inkscape-font-specification:sans-serif" /></flowRegion><flowPara
         id="flowPara14365"
         style="font-style:normal;font-variant:normal;font-weight:normal;font-stretch:normal;font-size:7.5px;line-height:1.25;font-family:sans-serif;-inkscape-font-specification:sans-serif">$\widetilde{D^-}$</flowPara></flowRoot>    <flowRoot
       xml:space="preserve"
       id="flowRoot4729"
       style="font-style:normal;font-weight:normal;line-height:0.01%;font-family:sans-serif;letter-spacing:0px;word-spacing:0px;fill:#000000;fill-opacity:1;stroke:none;stroke-width:1px;stroke-linecap:butt;stroke-linejoin:miter;stroke-opacity:1"
       transform="translate(-246.01186,18.031561)"><flowRegion
         id="flowRegion4731"
         style="font-family:sans-serif"><rect
           id="rect4733"
           width="199.52551"
           height="46.760864"
           x="413.18033"
           y="427.95502"
           style="font-family:sans-serif" /></flowRegion><flowPara
         id="flowPara4735"
         style="font-size:20px;line-height:1.25;font-family:sans-serif">$\widetilde{E^+}$</flowPara></flowRoot>    <text
       xml:space="preserve"
       style="font-style:normal;font-weight:normal;line-height:0%;font-family:sans-serif;letter-spacing:0px;word-spacing:0px;fill:#000000;fill-opacity:1;stroke:none;stroke-width:1px;stroke-linecap:butt;stroke-linejoin:miter;stroke-opacity:1"
       x="387.93616"
       y="640.72742"
       id="text5386"><tspan
         sodipodi:role="line"
         id="tspan5388"
         x="387.93616"
         y="640.72742"
         style="font-size:20px;line-height:1.25;font-family:sans-serif">$\widetilde{E^-}$</tspan></text>
    <path
       inkscape:connector-curvature="0"
       id="path1343"
       d="m 355.42422,356.09065 -0.0414,199.135 -24.39583,-0.0806 c -1.78985,-2.94896 -1.57478,-5.09785 -4.68962,-4.9488 -3.11483,0.14905 -2.44873,2.51917 -4.21915,4.9488 l -43.53679,-0.59539 c 0,0 -0.79893,-3.83339 -4.44076,-3.87954 -3.64183,-0.0462 -4.59121,3.97611 -4.59121,3.97611 l -42.27641,-0.0483 c 0,0 -1.30221,-4.1468 -4.70884,-4.19339 -3.40663,-0.0466 -4.55672,4.39304 -4.55672,4.39304 l -42.36082,-0.0483 c 0,0 -1.40385,-4.42583 -4.54781,-4.3141 -3.14393,0.11174 -4.52365,4.36239 -4.52365,4.36239 l -34.89208,0.0241"
       style="fill:none;fill-rule:evenodd;stroke:#0000ff;stroke-width:2;stroke-linecap:butt;stroke-linejoin:miter;stroke-miterlimit:4;stroke-dasharray:none;stroke-dashoffset:0;stroke-opacity:1"
       sodipodi:nodetypes="ccczcccccccczcc" />
    <path
       sodipodi:nodetypes="ccczcczcczcczcc"
       style="fill:none;fill-rule:evenodd;stroke:#ae00ff;stroke-width:2;stroke-linecap:butt;stroke-linejoin:miter;stroke-miterlimit:4;stroke-dasharray:none;stroke-dashoffset:0;stroke-opacity:1"
       d="m 357.75581,756.48527 c 0.0632,-63.53803 -0.82897,-200.04145 -0.82897,-200.04145 l 28.3158,0.0136 c 0,0 1.0162,4.63009 4.65803,4.67624 3.64183,0.0462 4.4705,-4.70039 4.4705,-4.70039 l 42.25277,-0.0253 c 0,0 -0.14412,4.7366 4.37104,4.78192 4.51517,0.0453 4.80874,-4.84727 4.80874,-4.84727 l 40.67003,-0.0302 c 0,0 0.81936,5.06422 4.22599,5.11081 3.40663,0.0466 5.20858,-5.03839 5.20858,-5.03839 l 41.29645,0.0483 c 0,0 2.2247,4.03955 5.36866,3.92782 3.14393,-0.11174 4.81336,-3.92782 4.81336,-3.92782 l 29.56427,-0.0724"
       id="path2062"
       inkscape:connector-curvature="0" />
    <g
       id="g1335">
      <path
         inkscape:connector-curvature="0"
         id="use5320"
         d="m 260.32604,556.51649 -10.91766,10e-6"
         style="fill:none;fill-rule:evenodd;stroke:#008000;stroke-width:2;stroke-linecap:butt;stroke-linejoin:miter;stroke-miterlimit:4;stroke-dasharray:none;stroke-opacity:1;marker-end:url(#marker13828)" />
      <path
         inkscape:connector-curvature="0"
         id="path5322"
         d="m 356.38923,755.06735 -0.0414,-199.135 -24.39583,0.0806 c -1.78985,2.94896 -1.57478,5.09785 -4.68962,4.9488 -3.11483,-0.14905 -2.44873,-2.51917 -4.21915,-4.9488 l -43.53679,0.59539 c 0,0 -0.79893,3.83339 -4.44076,3.87954 -3.64183,0.0462 -4.59121,-3.97611 -4.59121,-3.97611 l -42.27641,0.0483 c 0,0 -1.30221,4.1468 -4.70884,4.19339 -3.40663,0.0466 -4.55672,-4.39304 -4.55672,-4.39304 l -42.36082,0.0483 c 0,0 -1.40385,4.42583 -4.54781,4.3141 -3.14393,-0.11174 -4.52365,-4.36239 -4.52365,-4.36239 l -34.89208,-0.0241"
         style="fill:none;fill-rule:evenodd;stroke:#008000;stroke-width:2;stroke-linecap:butt;stroke-linejoin:miter;stroke-miterlimit:4;stroke-dasharray:4, 2;stroke-dashoffset:0;stroke-opacity:1"
         sodipodi:nodetypes="ccczcccccccczcc" />
      <path
         inkscape:connector-curvature="0"
         id="use6652"
         d="m 356.36573,673.88119 -0.0762,-9.38254"
         style="fill:none;fill-rule:evenodd;stroke:#008000;stroke-width:2;stroke-linecap:butt;stroke-linejoin:miter;stroke-miterlimit:4;stroke-dasharray:none;stroke-opacity:1;marker-end:url(#marker6720)"
         sodipodi:nodetypes="cc" />
    </g>
    <path
       sodipodi:nodetypes="cc"
       style="fill:none;fill-rule:evenodd;stroke:#ae00ff;stroke-width:2;stroke-linecap:butt;stroke-linejoin:miter;stroke-miterlimit:4;stroke-dasharray:none;stroke-opacity:1;marker-end:url(#marker2075)"
       d="m 357.55977,617.65979 -0.14105,9.45497"
       id="path2060"
       inkscape:connector-curvature="0" />
    <g
       id="g994"
       transform="translate(0.57900573,-0.38600379)">
      <path
         style="fill:none;fill-rule:evenodd;stroke:#ff0000;stroke-width:2;stroke-linecap:butt;stroke-linejoin:miter;stroke-miterlimit:4;stroke-dasharray:none;stroke-opacity:1;marker-end:url(#marker6810)"
         d="m 463.902,555.54012 10.91766,-10e-6"
         id="use6654"
         inkscape:connector-curvature="0" />
      <path
         sodipodi:nodetypes="cc"
         style="fill:none;fill-rule:evenodd;stroke:#ff0000;stroke-width:2;stroke-linecap:butt;stroke-linejoin:miter;stroke-miterlimit:4;stroke-dasharray:none;stroke-opacity:1;marker-end:url(#marker5328)"
         d="m 356.98076,438.15145 -0.14105,9.45497"
         id="path5318"
         inkscape:connector-curvature="0" />
      <path
         sodipodi:nodetypes="ccczcczcczcczcc"
         style="fill:none;fill-rule:evenodd;stroke:#ff0000;stroke-width:2;stroke-linecap:butt;stroke-linejoin:miter;stroke-miterlimit:4;stroke-dasharray:none;stroke-dashoffset:0;stroke-opacity:1"
         d="m 357.1768,355.35073 c 0.0632,63.53803 -0.82897,199.93342 -0.82897,199.93342 l 28.3158,0.0944 c 0,0 1.0162,-4.63009 4.65803,-4.67624 3.64183,-0.0462 4.4705,4.70039 4.4705,4.70039 l 42.25277,0.0253 c 0,0 -0.14412,-4.7366 4.37104,-4.78192 4.51517,-0.0453 4.80874,4.84727 4.80874,4.84727 l 40.67003,0.0302 c 0,0 0.81936,-5.06422 4.22599,-5.11081 3.40663,-0.0466 5.20858,5.03839 5.20858,5.03839 l 41.29645,-0.0483 c 0,0 2.2247,-4.03955 5.36866,-3.92782 3.14393,0.11174 4.81336,3.92782 4.81336,3.92782 l 29.56427,0.0724"
         id="use6656"
         inkscape:connector-curvature="0" />
    </g>
    <path
       style="fill:none;fill-rule:evenodd;stroke:#ae00ff;stroke-width:2;stroke-linecap:butt;stroke-linejoin:miter;stroke-miterlimit:4;stroke-dasharray:none;stroke-opacity:1;marker-end:url(#marker2487)"
       d="m 527.17235,556.29588 -10.91766,10e-6"
       id="path2058"
       inkscape:connector-curvature="0" />
    <path
       inkscape:connector-curvature="0"
       id="path1345"
       d="m 355.40072,416.31474 -0.0762,-9.38254"
       style="fill:none;fill-rule:evenodd;stroke:#0004ff;stroke-width:2;stroke-linecap:butt;stroke-linejoin:miter;stroke-miterlimit:4;stroke-dasharray:none;stroke-opacity:1;marker-end:url(#marker1358)"
       sodipodi:nodetypes="cc" />
    <path
       inkscape:connector-curvature="0"
       id="path1341"
       d="m 194.79469,554.64151 10.91766,-1e-5"
       style="fill:none;fill-rule:evenodd;stroke:#0000ff;stroke-width:2;stroke-linecap:butt;stroke-linejoin:miter;stroke-miterlimit:4;stroke-dasharray:none;stroke-opacity:1;marker-end:url(#marker1452)" />
  </g>
</svg>
