(beta11, beta12, beta13, beta14, beta22, beta23, beta24)=(-2, 1, 0, 0, 0, 0, 1);

length(la_j)=20001

c=L/2
w=L/4
r=0
u0= (x-c)*r+1 if -w/2<x-c<w/2 (box function)

first 7 eigenvalues:
1.16556+0.0im
 4.60422+0.0im
 7.78988+0.0im
 10.9499+0.0im
 14.1017+0.0im
 17.2498+0.0im
 20.3958+0.0im